%!PS-Adobe-3.0 EPSF-3.0
%%Creator: cairo 1.14.10 (http://cairographics.org)
%%CreationDate: Mon Sep 11 14:29:37 2017
%%Pages: 1
%%DocumentData: Clean7Bit
%%LanguageLevel: 2
%%BoundingBox: 0 -1 192 188
%%EndComments
%%BeginProlog
save
50 dict begin
/q { gsave } bind def
/Q { grestore } bind def
/cm { 6 array astore concat } bind def
/w { setlinewidth } bind def
/J { setlinecap } bind def
/j { setlinejoin } bind def
/M { setmiterlimit } bind def
/d { setdash } bind def
/m { moveto } bind def
/l { lineto } bind def
/c { curveto } bind def
/h { closepath } bind def
/re { exch dup neg 3 1 roll 5 3 roll moveto 0 rlineto
      0 exch rlineto 0 rlineto closepath } bind def
/S { stroke } bind def
/f { fill } bind def
/f* { eofill } bind def
/n { newpath } bind def
/W { clip } bind def
/W* { eoclip } bind def
/BT { } bind def
/ET { } bind def
/pdfmark where { pop globaldict /?pdfmark /exec load put }
    { globaldict begin /?pdfmark /pop load def /pdfmark
    /cleartomark load def end } ifelse
/BDC { mark 3 1 roll /BDC pdfmark } bind def
/EMC { mark /EMC pdfmark } bind def
/cairo_store_point { /cairo_point_y exch def /cairo_point_x exch def } def
/Tj { show currentpoint cairo_store_point } bind def
/TJ {
  {
    dup
    type /stringtype eq
    { show } { -0.001 mul 0 cairo_font_matrix dtransform rmoveto } ifelse
  } forall
  currentpoint cairo_store_point
} bind def
/cairo_selectfont { cairo_font_matrix aload pop pop pop 0 0 6 array astore
    cairo_font exch selectfont cairo_point_x cairo_point_y moveto } bind def
/Tf { pop /cairo_font exch def /cairo_font_matrix where
      { pop cairo_selectfont } if } bind def
/Td { matrix translate cairo_font_matrix matrix concatmatrix dup
      /cairo_font_matrix exch def dup 4 get exch 5 get cairo_store_point
      /cairo_font where { pop cairo_selectfont } if } bind def
/Tm { 2 copy 8 2 roll 6 array astore /cairo_font_matrix exch def
      cairo_store_point /cairo_font where { pop cairo_selectfont } if } bind def
/g { setgray } bind def
/rg { setrgbcolor } bind def
/d1 { setcachedevice } bind def
/cairo_flush_ascii85_file { cairo_ascii85_file status { cairo_ascii85_file flushfile } if } def
/cairo_image { image cairo_flush_ascii85_file } def
/cairo_imagemask { imagemask cairo_flush_ascii85_file } def
%%EndProlog
%%BeginSetup
%%EndSetup
%%Page: 1 1
%%BeginPageSetup
%%PageBoundingBox: 0 -1 192 188
%%EndPageSetup
q 0 -1 192 189 rectclip q
0.12549 0.607843 0.831373 rg
96 187.261 m 42.988 187.261 0 144.28 0 91.261 c 0 48.843 27.508 12.858 
65.652 0.167 c 70.449 -0.724 72.211 2.249 72.211 4.784 c 72.211 7.073 72.121
 14.636 72.082 22.655 c 45.371 16.851 39.738 33.983 39.738 33.983 c 35.371
 45.081 29.078 48.03 29.078 48.03 c 20.367 53.987 29.734 53.866 29.734 53.866
 c 39.375 53.19 44.449 43.972 44.449 43.972 c 53.012 29.296 66.91 33.538
 72.387 35.991 c 73.25 42.198 75.738 46.433 78.48 48.831 c 57.16 51.257 
34.742 59.487 34.742 96.272 c 34.742 106.757 38.492 115.319 44.637 122.042
 c 43.637 124.46 40.352 134.226 45.566 147.448 c 45.566 147.448 53.625 150.026
 71.973 137.608 c 79.629 139.733 87.844 140.8 96 140.839 c 104.16 140.8 
112.379 139.733 120.051 137.608 c 138.375 150.026 146.426 147.448 146.426
 147.448 c 151.648 134.226 148.363 124.46 147.363 122.042 c 153.52 115.319
 157.246 106.757 157.246 96.272 c 157.246 59.401 134.785 51.284 113.41 48.905
 c 116.852 45.929 119.922 40.085 119.922 31.128 c 119.922 18.284 119.809
 7.944 119.809 4.784 c 119.809 2.229 121.539 -0.767 126.406 0.179 c 164.527
 12.886 192 48.858 192 91.261 c 192 144.28 149.02 187.261 96 187.261 c h
35.957 50.507 m 35.742 50.03 34.992 49.886 34.309 50.214 c 33.613 50.526
 33.223 51.175 33.449 51.655 c 33.656 52.147 34.406 52.284 35.102 51.952
 c 35.801 51.64 36.195 50.983 35.957 50.507 c h
40.676 46.292 m 40.219 45.866 39.324 46.065 38.719 46.737 c 38.09 47.405
 37.973 48.3 38.438 48.729 c 38.91 49.155 39.777 48.956 40.406 48.288 c 
41.035 47.608 41.156 46.722 40.676 46.292 c h
43.918 40.901 m 43.328 40.491 42.367 40.874 41.773 41.729 c 41.184 42.581
 41.184 43.608 41.785 44.018 c 42.383 44.429 43.328 44.058 43.93 43.21 c
 44.52 42.343 44.52 41.319 43.918 40.901 c h
49.395 34.659 m 48.871 34.077 47.75 34.233 46.93 35.026 c 46.09 35.8 45.855
 36.897 46.383 37.479 c 46.918 38.058 48.043 37.897 48.871 37.108 c 49.703
 36.339 49.957 35.229 49.395 34.659 c h
56.477 32.55 m 56.246 31.796 55.164 31.456 54.078 31.776 c 52.992 32.104
 52.281 32.983 52.5 33.745 c 52.727 34.503 53.812 34.858 54.906 34.515 c
 55.992 34.19 56.703 33.315 56.477 32.55 c h
64.535 31.655 m 64.562 30.862 63.641 30.206 62.5 30.194 c 61.352 30.167
 60.422 30.808 60.41 31.589 c 60.41 32.386 61.312 33.038 62.461 33.058 c
 63.602 33.077 64.535 32.444 64.535 31.655 c h
72.453 31.96 m 72.59 31.186 71.797 30.393 70.66 30.183 c 69.547 29.979 
68.516 30.456 68.375 31.222 c 68.234 32.015 69.043 32.808 70.156 33.011 
c 71.293 33.21 72.309 32.745 72.453 31.96 c h
72.453 31.96 m f
Q Q
showpage
%%Trailer
end restore
%%EOF
